Proyecto Herramientas
…
#VARIACION PROMEDIO DE ESPERANZA DE VIDA Y GASTO EN SALUD
df_final %>%
  group_by(Entity) %>%
  summarise(
    "Cambio % Esperanza" = ((life_expectancy_0[Year == 2023] - life_expectancy_0[Year == 2013])/life_expectancy_0[Year == 2013])*100,
    "Cambio % Gasto Salud" = ( (ppp_dollars_per_capita__financing_scheme_total[Year == 2023]-ppp_dollars_per_capita__financing_scheme_total[Year == 2013])  / ppp_dollars_per_capita__financing_scheme_total[Year == 2013] ) * 100)

# A tibble: 43 × 3
   Entity     `Cambio % Esperanza` `Cambio % Gasto Salud`
   <chr>                     <dbl>                  <dbl>
 1 Argentina                 2.06                    1.69
 2 Australia                 1.66                   29.7 
 3 Austria                   1.08                    9.41
 4 Belgium                   2.05                   11.2 
 5 Bulgaria                  1.08                   77.4 
 6 Canada                    1.03                   17.1 
 7 Chile                     2.03                   53.1 
 8 Colombia                  2.49                   31.2 
 9 Costa Rica                0.761                  16.6 
10 Croatia                   1.38                   68.6 
# ℹ 33 more rows
